{
    "type": "postgres",
    "host": "127.0.0.1",
    "port": "5432",
    "username": "postgres",
    "password": "root",
    "database": "movie_ticket_booking",
    "synchronize": true,
    "logging": true,
    "entities": [
        "dist/**/**.entity{.ts,.js}"
    ]
}


